…
# cafes by number of items - with at least n items:                              
n = 50                                                                           
cafes_working = d %>%                                                            
group_by(Cafe) %>%                                                               
summarise(n = n()) %>%                                                           
arrange(desc(n)) %>%                                                             
filter(n > 50)                                                                   
cafes_working                                                                    
#> # A tibble: 30 x 2
#>    Cafe                                              n
#>    <fct>                                         <int>
#>  1 Sharehouse Leeds                              29293
#>  2 Armley Junk-tion                               7185
#>  3 Cafe Abundance                                 3783
#>  4 Moortown Junk-tion                             3681
#>  5 TRJFP Plymouth                                 3335
#>  6 Bethesda ‘PAYF’ Cafe – Caffi Cyfrannu i Rannu  2333
#>  7 TRJFP Sheffield                                2164
#>  8 Elsie's Cafe                                   2065
#>  9 Fur Clemt                                      1394
#> 10 TRJFP Birmingham                               1288
#> # ... with 20 more rows
…
